{
  "record1": {
    "timsort1": 1,
    "timsort2": 1,
    "timsort3": "a",
    "url": "https://vuetifyjs.com/",
    "array": [1, 2, 3],
    "arrobj": [
      {
        "k": "item 0",
        "v": 0
      },
      {
        "k": "item 1",
        "v": 1
      },
      {
        "k": "item 2",
        "v": 2
      }
    ],
    "onlyInSome": 0
  },
  "record2": {
    "timsort1": 1,
    "timsort2": 2,
    "timsort3": "a",
    "url": "https://vuetifyjs.com/",
    "array": [4, 5, 6],
    "arrobj": [
      {
        "k": "item 0",
        "v": 0
      },
      {
        "k": "item 1",
        "v": 1
      },
      {
        "k": "item 2",
        "v": 2
      }
    ]
  },
  "record3": {
    "timsort1": 1,
    "timsort2": 3,
    "timsort3": "a",
    "url": "https://vuetifyjs.com/",
    "array": [7, 8 , 9],
    "arrobj": [
      {
        "k": "item 0",
        "v": 0
      },
      {
        "k": "item 1",
        "v": 1
      },
      {
        "k": "item 2",
        "v": 2
      }
    ],
    "onlyInSome": 10
  },
  "record4": {
    "timsort1": 2,
    "timsort2": 1,
    "timsort3": "b",
    "url": "https://vuetifyjs.com/",
    "array": [1, 2, 3, 4, 5, 6],
    "arrobj": [
      {
        "k": "item 0",
        "v": 0
      },
      {
        "k": "item 1",
        "v": 1
      },
      {
        "k": "item 2",
        "v": 4
      }
    ],
    "onlyInSome": 5
  },
  "record5": {
    "timsort1": 2,
    "timsort2": 2,
    "timsort3": "b",
    "url": "https://vuetifyjs.com/",
    "array": [4, 5, 6, 7, 8, 9],
    "arrobj": [
      {
        "k": "item 0",
        "v": 0
      },
      {
        "k": "item 1",
        "v": 1
      },
      {
        "k": "item 2",
        "v": 2
      }
    ]
  },
  "record6": {
    "timsort1": 2,
    "timsort2": 3,
    "timsort3": "b",
    "url": "https://vuetifyjs.com/",
    "array": [10, 20, 30, 40, 50, 60, 70, 80, 90, 100],
    "arrobj": [
      {
        "k": "item 0",
        "v": 0
      },
      {
        "k": "item 1",
        "v": 1
      },
      {
        "k": "item 2",
        "v": 2
      }
    ]
  },
  "record7": {
    "timsort1": 3,
    "timsort2": 1,
    "timsort3": "c",
    "url": "https://vuetifyjs.com/",
    "array": [55, 65, 75, 85, 95],
    "arrobj": [
      {
        "k": "item 0",
        "v": 0
      },
      {
        "k": "item 1",
        "v": 1
      },
      {
        "k": "item 2",
        "v": 2
      }
    ]
  },
  "record8": {
    "timsort1": 3,
    "timsort2": 2,
    "timsort3": "c",
    "url": "https://vuetifyjs.com/",
    "array": [0],
    "arrobj": [
      {
        "k": "item 0",
        "v": 0
      },
      {
        "k": "item 1",
        "v": 1
      },
      {
        "k": "item 2",
        "v": 2
      }
    ]
  },
  "record9": {
    "timsort1": 3,
    "timsort2": 3,
    "timsort3": "c",
    "url": "https://vuetifyjs.com/",
    "array": [5, 4, 3, 2, 1],
    "arrobj": [
      {
        "k": "item 0",
        "v": 0
      },
      {
        "k": "item 1",
        "v": 1
      },
      {
        "k": "item 2",
        "v": 2
      }
    ]
  }
}
